Categories:System
License:GPL-3.0+
Web Site:https://renyuneyun.github.io/Easer/en/
Source Code:https://github.com/renyuneyun/Easer
Issue Tracker:https://github.com/renyuneyun/Easer/issues
Changelog:https://github.com/renyuneyun/Easer/blob/HEAD/CHANGELOG.md
Donate:https://renyuneyun.github.io/Easer/en/DONATE

Auto Name:Easer
Summary:Event-driven Android automation
Description:
Make your smart phone smarter: tell it what to do under what situation.

Easer is an event-driven Android automation app. It knows various events, and
you, the user, could tell it what to do on what event (and even combine multiple
events!). Routine actions no longer need to be taken manually.

This app was inspired by CyanogenMod's 'profile' mechanism and IFTTT. The
original intuition was to automatically change the profile on certain time or
specific WiFi connections, and it was expanded for more general use then (so
Easer runs on any Android devices).

Reminder: Easer is still under development. It may contain bugs and the UI
definitely needs to be improved. For more details or expansion of Easer, read
[https://renyuneyun.github.io/Easer/en/README README],
[https://renyuneyun.github.io/Easer/en/HOWTO HOWTO] (creating more events /
operations), [https://renyuneyun.github.io/Easer/en/TODO TODO] (or
[https://renyuneyun.github.io/Easer/zh/README README],
[https://renyuneyun.github.io/Easer/zh/HOWTO HOWTO],
[https://renyuneyun.github.io/Easer/zh/TODO TODO] if you can read Chinese)
document in the repo.
.

Repo Type:git
Repo:https://github.com/renyuneyun/Easer.git

Build:0.2.1.0,6
    commit=v0.2.1.0
    subdir=app
    gradle=yes

Build:0.2.3,8
    commit=v0.2.3
    subdir=app
    gradle=yes

Build:0.2.3.1,9
    commit=v0.2.3.1
    subdir=app
    gradle=yes

Build:0.2.5.2,13
    commit=v0.2.5.2
    subdir=app
    gradle=yes

Build:0.2.6,15
    commit=v0.2.6
    subdir=app
    gradle=yes

Build:0.2.7,16
    commit=v0.2.7
    subdir=app
    gradle=yes

Build:0.2.9,18
    commit=v0.2.9
    subdir=app
    gradle=yes

Build:0.3.0,19
    commit=v0.3.0
    subdir=app
    gradle=yes

Build:0.3.1,20
    commit=v0.3.1
    subdir=app
    gradle=yes

Build:0.3.2,21
    commit=v0.3.2
    subdir=app
    gradle=yes

Build:0.3.3,22
    commit=v0.3.3
    subdir=app
    gradle=yes

Build:0.3.3.2,24
    commit=v0.3.3.2
    subdir=app
    gradle=yes

Build:0.3.4,25
    commit=v0.3.4
    subdir=app
    gradle=yes

Build:0.3.5,26
    commit=v0.3.5
    subdir=app
    gradle=yes

Build:0.3.5.2,28
    commit=v0.3.5.2
    subdir=app
    gradle=yes

Build:0.3.6,29
    commit=v0.3.6
    subdir=app
    gradle=yes

Build:0.3.6.1,30
    commit=v0.3.6.1
    subdir=app
    gradle=yes

Build:0.3.7,31
    commit=v0.3.7
    subdir=app
    gradle=yes

Build:0.3.7.2,33
    commit=v0.3.7.2
    subdir=app
    gradle=yes

Build:0.3.8,34
    commit=v0.3.8
    subdir=app
    gradle=yes

Build:0.3.9,35
    commit=v0.3.9
    subdir=app
    gradle=yes

Build:0.4,36
    commit=v0.4
    subdir=app
    gradle=yes

Build:0.4.0.1,37
    commit=v0.4.0.1
    subdir=app
    gradle=yes

Build:0.4.1,38
    commit=v0.4.1
    subdir=app
    gradle=yes

Build:0.4.2,39
    commit=v0.4.2
    subdir=app
    gradle=yes

Build:0.4.2.1,40
    commit=v0.4.2.1
    subdir=app
    gradle=yes

Build:0.4.3,41
    commit=v0.4.3
    subdir=app
    gradle=yes

Build:0.4.4,42
    commit=v0.4.4
    subdir=app
    gradle=yes

Build:0.4.5,43
    commit=v0.4.5
    subdir=app
    gradle=yes

Build:0.4.6,44
    commit=v0.4.6
    subdir=app
    gradle=yes

Build:0.4.6.1,45
    commit=v0.4.6.1
    subdir=app
    gradle=yes

Build:0.4.7,46
    commit=v0.4.7
    subdir=app
    gradle=yes

Build:0.4.8,47
    commit=v0.4.8
    subdir=app
    gradle=yes

Build:0.4.9,48
    commit=v0.4.9
    subdir=app
    gradle=yes

Build:0.5,49
    commit=v0.5
    subdir=app
    gradle=yes

Build:0.5.1,50
    commit=v0.5.1
    subdir=app
    gradle=yes

Auto Update Mode:Version v%v
Update Check Mode:Tags
Current Version:0.5.1
Current Version Code:50
